<svg width="9" height="6" viewBox="0 0 9 6" fill="none" xmlns="http://www.w3.org/2000/svg">
<path d="M1.28571 -3.37202e-07L4.5 3.75L7.71429 -5.62004e-08L9 0.75L4.5 6L-3.27835e-08 0.75L1.28571 -3.37202e-07Z" fill="#061E47"/>
</svg>
