<svg width="2" height="156" viewBox="0 0 2 156" fill="none" xmlns="http://www.w3.org/2000/svg">
<path d="M1 0L1.00001 156" stroke="url(#paint0_linear)" stroke-width="0.5"/>
<defs>
<linearGradient id="paint0_linear" x1="1.23295" y1="-9.68944" x2="1.23291" y2="173.122" gradientUnits="userSpaceOnUse">
<stop stop-color="#4077BB" stop-opacity="0"/>
<stop offset="0.520833" stop-color="#061E47"/>
<stop offset="1" stop-color="#4077BB" stop-opacity="0"/>
</linearGradient>
</defs>
</svg>
