<svg width="62" height="62" viewBox="0 0 62 62" fill="none" xmlns="http://www.w3.org/2000/svg">
<path d="M52.0451 59.8714L52.045 59.8714L52.0392 59.8773C50.8747 61.0716 49.3165 61.4967 47.7379 61.5C40.5227 61.2814 33.6643 57.7339 27.9687 54.0335C18.6282 47.2366 10.0881 38.8307 4.73381 28.699C2.65326 24.3924 0.289804 19.0363 0.51487 14.3984L0.515318 14.3891L0.515425 14.3799C0.53534 12.6486 1.00252 11.0429 2.12758 10.0132L2.13569 10.0058L2.14347 9.99805L10.8702 1.2757C11.6878 0.585706 12.4238 0.412106 13.0426 0.538198C13.6747 0.667017 14.299 1.13157 14.8316 1.94898L21.8478 15.2536C22.4829 16.6203 22.1226 18.0869 21.1514 19.081L17.9331 22.2976L17.9056 22.3251L17.8827 22.3565C17.6374 22.6926 17.4624 23.1017 17.458 23.5663L17.4573 23.6322L17.4738 23.6961C18.7456 28.6191 22.575 33.1063 25.9011 36.1579C26.439 36.6514 26.9925 37.1826 27.5611 37.7285C28.703 38.8245 29.9062 39.9794 31.1681 41.0061C33.0688 42.5524 35.1779 43.8759 37.5894 44.3882C37.9019 44.4741 38.2684 44.5378 38.6295 44.5213C38.9953 44.5046 39.4033 44.4026 39.7243 44.1042L39.7326 44.0965L39.7404 44.0885L43.4606 40.305C44.6677 39.4038 46.2907 39.0513 47.4141 39.7034L47.5305 39.771H47.5942L60.1554 47.1868C61.7497 48.1903 61.8829 50.0677 60.7829 51.2037L52.0451 59.8714Z" stroke="#9AA2B1"/>
</svg>
