<svg width="17" height="25" viewBox="0 0 17 25" fill="none" xmlns="http://www.w3.org/2000/svg">
<path d="M0.667921 3.03509V0.543978C0.667921 0.32806 0.916067 0.208822 1.08364 0.340951L15.6114 11.6879C15.7348 11.7839 15.8347 11.9068 15.9034 12.0473C15.9721 12.1878 16.0078 12.3421 16.0078 12.4984C16.0078 12.6548 15.9721 12.8091 15.9034 12.9495C15.8347 13.09 15.7348 13.2129 15.6114 13.3089L1.08364 24.6559C0.912845 24.788 0.667921 24.6688 0.667921 24.4529V21.9617C0.667921 21.8038 0.742042 21.6524 0.864503 21.5557L12.4661 12.5L0.864503 3.44115C0.742042 3.34447 0.667921 3.193 0.667921 3.03509Z" fill="white"/>
</svg>
